Introducción al análisis longitudinal – Modelos Multinivel
…
dim(tolerance.pp)

[1] 80  5

tolerance.pp %>% slice(1:32) # muestra dos primeras medidas de tolerancia (16 casos primera, 16 segunda), ordenado por mediciones en lugar de casos

# A tibble: 32 × 5
      id  male exposure variable value
   <int> <int>    <dbl> <fct>    <dbl>
 1     9     0     1.54 tol11     2.23
 2     9     0     1.54 tol12     1.79
 3     9     0     1.54 tol13     1.9 
 4     9     0     1.54 tol14     2.12
 5     9     0     1.54 tol15     2.66
 6    45     1     1.16 tol11     1.12
 7    45     1     1.16 tol12     1.45
 8    45     1     1.16 tol13     1.45
 9    45     1     1.16 tol14     1.45
10    45     1     1.16 tol15     1.99
# ℹ 22 more rows
…
early.int %>% group_by(id) %>% summarise(mean(program))

# A tibble: 103 × 2
      id `mean(program)`
   <dbl>           <dbl>
 1    68               1
 2    70               1
 3    71               1
 4    72               1
 5    75               1
 6    76               1
 7    77               1
 8    79               1
 9    80               1
10    81               1
# ℹ 93 more rows

early.int1 <- early.int %>% filter(id >= 68 & id <=75 | id >= 902 & id <=906)

early.int1

# A tibble: 24 × 5
      id   cog   age program  time
   <dbl> <dbl> <dbl>   <dbl> <dbl>
 1    68   103   1         1   0  
 2    68   119   1.5       1   0.5
 3    68    96   2         1   1  
 4    70   106   1         1   0  
 5    70   107   1.5       1   0.5
 6    70    96   2         1   1  
 7    71   112   1         1   0  
 8    71    86   1.5       1   0.5
 9    71    73   2         1   1  
10    72   100   1         1   0  
# ℹ 14 more rows
…
